{
	"particleFiles" : [ "../inputFiles/bunny.txt"],

	"neighborRadius" : 0.2,
	"alpha" : 0.5,
	"omega" : 0.3,
	"numConstraintIters" : 5,
	"maxStretch" : 0.5,
	"nClusters" : 30,
	"springDamping": 0.1,
	"planes" : [ 
		[0, 1, 0, -2],
		[1, 1, 0, -2],
		[-1, 1, 0, -2]
	],
	"nu" : 0.05,
	"hardening" : 0.1
}
